id,account,password,firstName,lastName,email
0,Lance12,12345,Lance,Wang,lance@gmail.com
1,Nicole58,12345,Nicole,Dai,nicole@gmail.com
2,Eric87,12345,Eric,Tsai,eric@gmail.com
3,Amy112,12345,Amy,Hong,amy@gmail.com
4,Jack90,12345,Jack,Wang,jack@gmail.com
5,Jimmy722,12345,Jimmy,Shu,jimmy@gmail.com